[Wed Jun 29 2016 14:49:29 GMT-0400 (EDT)] INFO Requests: 0 (0%), requests per second: 0, mean latency: 0 ms
[Wed Jun 29 2016 14:49:34 GMT-0400 (EDT)] INFO Requests: 720 (72%), requests per second: 144, mean latency: 650 ms
[Wed Jun 29 2016 14:49:35 GMT-0400 (EDT)] INFO 
[Wed Jun 29 2016 14:49:35 GMT-0400 (EDT)] INFO Target URL:          http://demo-site-83449342.us-east-1.elb.amazonaws.com
[Wed Jun 29 2016 14:49:35 GMT-0400 (EDT)] INFO Max requests:        1000
[Wed Jun 29 2016 14:49:35 GMT-0400 (EDT)] INFO Concurrency level:   100
[Wed Jun 29 2016 14:49:35 GMT-0400 (EDT)] INFO Agent:               keepalive
[Wed Jun 29 2016 14:49:35 GMT-0400 (EDT)] INFO 
[Wed Jun 29 2016 14:49:35 GMT-0400 (EDT)] INFO Completed requests:  1000
[Wed Jun 29 2016 14:49:35 GMT-0400 (EDT)] INFO Total errors:        0
[Wed Jun 29 2016 14:49:35 GMT-0400 (EDT)] INFO Total time:          6.793899372 s
[Wed Jun 29 2016 14:49:35 GMT-0400 (EDT)] INFO Requests per second: 147
[Wed Jun 29 2016 14:49:35 GMT-0400 (EDT)] INFO Total time:          6.793899372 s
[Wed Jun 29 2016 14:49:35 GMT-0400 (EDT)] INFO 
[Wed Jun 29 2016 14:49:35 GMT-0400 (EDT)] INFO Percentage of the requests served within a certain time
[Wed Jun 29 2016 14:49:35 GMT-0400 (EDT)] INFO   50%      626 ms
[Wed Jun 29 2016 14:49:35 GMT-0400 (EDT)] INFO   90%      720 ms
[Wed Jun 29 2016 14:49:35 GMT-0400 (EDT)] INFO   95%      838 ms
[Wed Jun 29 2016 14:49:35 GMT-0400 (EDT)] INFO   99%      1044 ms
[Wed Jun 29 2016 14:49:35 GMT-0400 (EDT)] INFO  100%      1190 ms (longest request)
