[Wed Jun 29 2016 18:46:33 GMT-0400 (EDT)] INFO Requests: 0 (0%), requests per second: 0, mean latency: 0 ms
[Wed Jun 29 2016 18:46:38 GMT-0400 (EDT)] INFO Requests: 1445 (1%), requests per second: 289, mean latency: 1380 ms
[Wed Jun 29 2016 18:46:43 GMT-0400 (EDT)] INFO Requests: 3355 (3%), requests per second: 382, mean latency: 1890 ms
[Wed Jun 29 2016 18:46:48 GMT-0400 (EDT)] INFO Requests: 5497 (5%), requests per second: 429, mean latency: 2230 ms
[Wed Jun 29 2016 18:46:53 GMT-0400 (EDT)] INFO Requests: 7466 (7%), requests per second: 393, mean latency: 2670 ms
[Wed Jun 29 2016 18:46:58 GMT-0400 (EDT)] INFO Requests: 9452 (9%), requests per second: 398, mean latency: 2360 ms
[Wed Jun 29 2016 18:47:03 GMT-0400 (EDT)] INFO Requests: 11508 (12%), requests per second: 411, mean latency: 2430 ms
[Wed Jun 29 2016 18:47:08 GMT-0400 (EDT)] INFO Requests: 13588 (14%), requests per second: 416, mean latency: 2380 ms
[Wed Jun 29 2016 18:47:08 GMT-0400 (EDT)] INFO Errors: 5, accumulated errors: 5, 0% of total requests
[Wed Jun 29 2016 18:47:13 GMT-0400 (EDT)] INFO Requests: 15644 (16%), requests per second: 411, mean latency: 2390 ms
[Wed Jun 29 2016 18:47:13 GMT-0400 (EDT)] INFO Errors: 7, accumulated errors: 12, 0.1% of total requests
[Wed Jun 29 2016 18:47:18 GMT-0400 (EDT)] INFO Requests: 17766 (18%), requests per second: 424, mean latency: 2460 ms
[Wed Jun 29 2016 18:47:18 GMT-0400 (EDT)] INFO Errors: 3, accumulated errors: 15, 0.1% of total requests
[Wed Jun 29 2016 18:47:23 GMT-0400 (EDT)] INFO Requests: 19807 (20%), requests per second: 408, mean latency: 2730 ms
[Wed Jun 29 2016 18:47:23 GMT-0400 (EDT)] INFO Errors: 15, accumulated errors: 30, 0.2% of total requests
[Wed Jun 29 2016 18:47:28 GMT-0400 (EDT)] INFO Requests: 21861 (22%), requests per second: 411, mean latency: 2400 ms
[Wed Jun 29 2016 18:47:28 GMT-0400 (EDT)] INFO Errors: 3, accumulated errors: 33, 0.2% of total requests
[Wed Jun 29 2016 18:47:33 GMT-0400 (EDT)] INFO Requests: 23773 (24%), requests per second: 382, mean latency: 2500 ms
[Wed Jun 29 2016 18:47:33 GMT-0400 (EDT)] INFO Errors: 0, accumulated errors: 33, 0.1% of total requests
[Wed Jun 29 2016 18:47:38 GMT-0400 (EDT)] INFO Requests: 25807 (26%), requests per second: 407, mean latency: 2460 ms
[Wed Jun 29 2016 18:47:38 GMT-0400 (EDT)] INFO Errors: 1, accumulated errors: 34, 0.1% of total requests
[Wed Jun 29 2016 18:47:43 GMT-0400 (EDT)] INFO Requests: 27816 (28%), requests per second: 402, mean latency: 2580 ms
[Wed Jun 29 2016 18:47:43 GMT-0400 (EDT)] INFO Errors: 3, accumulated errors: 37, 0.1% of total requests
[Wed Jun 29 2016 18:47:48 GMT-0400 (EDT)] INFO Requests: 29991 (30%), requests per second: 435, mean latency: 2370 ms
[Wed Jun 29 2016 18:47:48 GMT-0400 (EDT)] INFO Errors: 2, accumulated errors: 39, 0.1% of total requests
[Wed Jun 29 2016 18:47:53 GMT-0400 (EDT)] INFO Requests: 32103 (32%), requests per second: 422, mean latency: 2350 ms
[Wed Jun 29 2016 18:47:53 GMT-0400 (EDT)] INFO Errors: 2, accumulated errors: 41, 0.1% of total requests
[Wed Jun 29 2016 18:47:58 GMT-0400 (EDT)] INFO Requests: 34165 (34%), requests per second: 412, mean latency: 2370 ms
[Wed Jun 29 2016 18:47:58 GMT-0400 (EDT)] INFO Errors: 0, accumulated errors: 41, 0.1% of total requests
[Wed Jun 29 2016 18:48:03 GMT-0400 (EDT)] INFO Requests: 36110 (36%), requests per second: 389, mean latency: 2480 ms
[Wed Jun 29 2016 18:48:03 GMT-0400 (EDT)] INFO Errors: 3, accumulated errors: 44, 0.1% of total requests
[Wed Jun 29 2016 18:48:08 GMT-0400 (EDT)] INFO Requests: 38092 (38%), requests per second: 396, mean latency: 2560 ms
[Wed Jun 29 2016 18:48:08 GMT-0400 (EDT)] INFO Errors: 5, accumulated errors: 49, 0.1% of total requests
[Wed Jun 29 2016 18:48:13 GMT-0400 (EDT)] INFO Requests: 40073 (40%), requests per second: 396, mean latency: 2560 ms
[Wed Jun 29 2016 18:48:13 GMT-0400 (EDT)] INFO Errors: 4, accumulated errors: 53, 0.1% of total requests
[Wed Jun 29 2016 18:48:18 GMT-0400 (EDT)] INFO Requests: 42189 (42%), requests per second: 423, mean latency: 2430 ms
[Wed Jun 29 2016 18:48:18 GMT-0400 (EDT)] INFO Errors: 5, accumulated errors: 58, 0.1% of total requests
[Wed Jun 29 2016 18:48:23 GMT-0400 (EDT)] INFO Requests: 44123 (44%), requests per second: 387, mean latency: 2490 ms
[Wed Jun 29 2016 18:48:23 GMT-0400 (EDT)] INFO Errors: 3, accumulated errors: 61, 0.1% of total requests
[Wed Jun 29 2016 18:48:28 GMT-0400 (EDT)] INFO Requests: 46051 (46%), requests per second: 385, mean latency: 2670 ms
[Wed Jun 29 2016 18:48:28 GMT-0400 (EDT)] INFO Errors: 4, accumulated errors: 65, 0.1% of total requests
[Wed Jun 29 2016 18:48:33 GMT-0400 (EDT)] INFO Requests: 47982 (48%), requests per second: 386, mean latency: 2530 ms
[Wed Jun 29 2016 18:48:33 GMT-0400 (EDT)] INFO Errors: 5, accumulated errors: 70, 0.1% of total requests
[Wed Jun 29 2016 18:48:38 GMT-0400 (EDT)] INFO Requests: 49863 (50%), requests per second: 376, mean latency: 2560 ms
[Wed Jun 29 2016 18:48:38 GMT-0400 (EDT)] INFO Errors: 2, accumulated errors: 72, 0.1% of total requests
[Wed Jun 29 2016 18:48:43 GMT-0400 (EDT)] INFO Requests: 51984 (52%), requests per second: 424, mean latency: 2440 ms
[Wed Jun 29 2016 18:48:43 GMT-0400 (EDT)] INFO Errors: 1, accumulated errors: 73, 0.1% of total requests
[Wed Jun 29 2016 18:48:48 GMT-0400 (EDT)] INFO Requests: 54085 (54%), requests per second: 420, mean latency: 2450 ms
[Wed Jun 29 2016 18:48:48 GMT-0400 (EDT)] INFO Errors: 1, accumulated errors: 74, 0.1% of total requests
[Wed Jun 29 2016 18:48:53 GMT-0400 (EDT)] INFO Requests: 55826 (56%), requests per second: 348, mean latency: 2430 ms
[Wed Jun 29 2016 18:48:53 GMT-0400 (EDT)] INFO Errors: 3, accumulated errors: 77, 0.1% of total requests
[Wed Jun 29 2016 18:48:58 GMT-0400 (EDT)] INFO Requests: 57019 (57%), requests per second: 239, mean latency: 4080 ms
[Wed Jun 29 2016 18:48:58 GMT-0400 (EDT)] INFO Errors: 2, accumulated errors: 79, 0.1% of total requests
[Wed Jun 29 2016 18:49:03 GMT-0400 (EDT)] INFO Requests: 59175 (59%), requests per second: 431, mean latency: 2550 ms
[Wed Jun 29 2016 18:49:03 GMT-0400 (EDT)] INFO Errors: 4, accumulated errors: 83, 0.1% of total requests
[Wed Jun 29 2016 18:49:08 GMT-0400 (EDT)] INFO Requests: 61339 (61%), requests per second: 433, mean latency: 2350 ms
[Wed Jun 29 2016 18:49:08 GMT-0400 (EDT)] INFO Errors: 3, accumulated errors: 86, 0.1% of total requests
[Wed Jun 29 2016 18:49:13 GMT-0400 (EDT)] INFO Requests: 63536 (64%), requests per second: 439, mean latency: 2420 ms
[Wed Jun 29 2016 18:49:13 GMT-0400 (EDT)] INFO Errors: 2, accumulated errors: 88, 0.1% of total requests
[Wed Jun 29 2016 18:49:18 GMT-0400 (EDT)] INFO Requests: 65650 (66%), requests per second: 423, mean latency: 2400 ms
[Wed Jun 29 2016 18:49:18 GMT-0400 (EDT)] INFO Errors: 3, accumulated errors: 91, 0.1% of total requests
[Wed Jun 29 2016 18:49:23 GMT-0400 (EDT)] INFO Requests: 67712 (68%), requests per second: 412, mean latency: 2390 ms
[Wed Jun 29 2016 18:49:23 GMT-0400 (EDT)] INFO Errors: 2, accumulated errors: 93, 0.1% of total requests
[Wed Jun 29 2016 18:49:28 GMT-0400 (EDT)] INFO Requests: 69927 (70%), requests per second: 443, mean latency: 2320 ms
[Wed Jun 29 2016 18:49:28 GMT-0400 (EDT)] INFO Errors: 2, accumulated errors: 95, 0.1% of total requests
[Wed Jun 29 2016 18:49:33 GMT-0400 (EDT)] INFO Requests: 71971 (72%), requests per second: 409, mean latency: 2300 ms
[Wed Jun 29 2016 18:49:33 GMT-0400 (EDT)] INFO Errors: 1, accumulated errors: 96, 0.1% of total requests
[Wed Jun 29 2016 18:49:38 GMT-0400 (EDT)] INFO Requests: 74002 (74%), requests per second: 406, mean latency: 2490 ms
[Wed Jun 29 2016 18:49:38 GMT-0400 (EDT)] INFO Errors: 7, accumulated errors: 103, 0.1% of total requests
[Wed Jun 29 2016 18:49:43 GMT-0400 (EDT)] INFO Requests: 75943 (76%), requests per second: 388, mean latency: 2550 ms
[Wed Jun 29 2016 18:49:43 GMT-0400 (EDT)] INFO Errors: 2, accumulated errors: 105, 0.1% of total requests
[Wed Jun 29 2016 18:49:48 GMT-0400 (EDT)] INFO Requests: 77930 (78%), requests per second: 397, mean latency: 2520 ms
[Wed Jun 29 2016 18:49:48 GMT-0400 (EDT)] INFO Errors: 1, accumulated errors: 106, 0.1% of total requests
[Wed Jun 29 2016 18:49:53 GMT-0400 (EDT)] INFO Requests: 79964 (80%), requests per second: 407, mean latency: 2500 ms
[Wed Jun 29 2016 18:49:53 GMT-0400 (EDT)] INFO Errors: 2, accumulated errors: 108, 0.1% of total requests
[Wed Jun 29 2016 18:49:58 GMT-0400 (EDT)] INFO Requests: 82126 (82%), requests per second: 432, mean latency: 2420 ms
[Wed Jun 29 2016 18:49:58 GMT-0400 (EDT)] INFO Errors: 2, accumulated errors: 110, 0.1% of total requests
[Wed Jun 29 2016 18:50:03 GMT-0400 (EDT)] INFO Requests: 84098 (84%), requests per second: 394, mean latency: 2400 ms
[Wed Jun 29 2016 18:50:03 GMT-0400 (EDT)] INFO Errors: 2, accumulated errors: 112, 0.1% of total requests
[Wed Jun 29 2016 18:50:08 GMT-0400 (EDT)] INFO Requests: 85997 (86%), requests per second: 380, mean latency: 2680 ms
[Wed Jun 29 2016 18:50:08 GMT-0400 (EDT)] INFO Errors: 6, accumulated errors: 118, 0.1% of total requests
[Wed Jun 29 2016 18:50:13 GMT-0400 (EDT)] INFO Requests: 88053 (88%), requests per second: 411, mean latency: 2460 ms
[Wed Jun 29 2016 18:50:13 GMT-0400 (EDT)] INFO Errors: 4, accumulated errors: 122, 0.1% of total requests
[Wed Jun 29 2016 18:50:18 GMT-0400 (EDT)] INFO Requests: 90113 (90%), requests per second: 412, mean latency: 2480 ms
[Wed Jun 29 2016 18:50:18 GMT-0400 (EDT)] INFO Errors: 3, accumulated errors: 125, 0.1% of total requests
[Wed Jun 29 2016 18:50:23 GMT-0400 (EDT)] INFO Requests: 92088 (92%), requests per second: 395, mean latency: 2390 ms
[Wed Jun 29 2016 18:50:23 GMT-0400 (EDT)] INFO Errors: 0, accumulated errors: 125, 0.1% of total requests
[Wed Jun 29 2016 18:50:28 GMT-0400 (EDT)] INFO Requests: 93973 (94%), requests per second: 377, mean latency: 2600 ms
[Wed Jun 29 2016 18:50:28 GMT-0400 (EDT)] INFO Errors: 0, accumulated errors: 125, 0.1% of total requests
[Wed Jun 29 2016 18:50:33 GMT-0400 (EDT)] INFO Requests: 96067 (96%), requests per second: 419, mean latency: 2460 ms
[Wed Jun 29 2016 18:50:33 GMT-0400 (EDT)] INFO Errors: 2, accumulated errors: 127, 0.1% of total requests
[Wed Jun 29 2016 18:50:38 GMT-0400 (EDT)] INFO Requests: 98105 (98%), requests per second: 408, mean latency: 2370 ms
[Wed Jun 29 2016 18:50:38 GMT-0400 (EDT)] INFO Errors: 0, accumulated errors: 127, 0.1% of total requests
[Wed Jun 29 2016 18:50:43 GMT-0400 (EDT)] INFO 
[Wed Jun 29 2016 18:50:43 GMT-0400 (EDT)] INFO Target URL:          http://demo-site-83449342.us-east-1.elb.amazonaws.com
[Wed Jun 29 2016 18:50:43 GMT-0400 (EDT)] INFO Max requests:        100000
[Wed Jun 29 2016 18:50:43 GMT-0400 (EDT)] INFO Concurrency level:   1000
[Wed Jun 29 2016 18:50:43 GMT-0400 (EDT)] INFO Agent:               keepalive
[Wed Jun 29 2016 18:50:43 GMT-0400 (EDT)] INFO 
[Wed Jun 29 2016 18:50:43 GMT-0400 (EDT)] INFO Completed requests:  100000
[Wed Jun 29 2016 18:50:43 GMT-0400 (EDT)] INFO Total errors:        127
[Wed Jun 29 2016 18:50:43 GMT-0400 (EDT)] INFO Total time:          249.760687158 s
[Wed Jun 29 2016 18:50:43 GMT-0400 (EDT)] INFO Requests per second: 400
[Wed Jun 29 2016 18:50:43 GMT-0400 (EDT)] INFO Total time:          249.760687158 s
[Wed Jun 29 2016 18:50:43 GMT-0400 (EDT)] INFO 
[Wed Jun 29 2016 18:50:43 GMT-0400 (EDT)] INFO Percentage of the requests served within a certain time
[Wed Jun 29 2016 18:50:43 GMT-0400 (EDT)] INFO   50%      722 ms
[Wed Jun 29 2016 18:50:43 GMT-0400 (EDT)] INFO   90%      5899 ms
[Wed Jun 29 2016 18:50:43 GMT-0400 (EDT)] INFO   95%      8869 ms
[Wed Jun 29 2016 18:50:43 GMT-0400 (EDT)] INFO   99%      19670 ms
[Wed Jun 29 2016 18:50:43 GMT-0400 (EDT)] INFO  100%      57435 ms (longest request)
[Wed Jun 29 2016 18:50:43 GMT-0400 (EDT)] INFO 
[Wed Jun 29 2016 18:50:43 GMT-0400 (EDT)] INFO  100%      57435 ms (longest request)
[Wed Jun 29 2016 18:50:43 GMT-0400 (EDT)] INFO 
[Wed Jun 29 2016 18:50:43 GMT-0400 (EDT)] INFO    -1:   127 errors
